Mini Project01 – STA 9750 2024 Submission Material
…
NYC Subway leads the way here as well, while NJT Bus is overtaken by NYC’s bus system. The distance between the MTA and the next few is quite large.

4.2 Which Agency manages the most Modes?

USAGE |>
  group_by(Agency) |>
  summarize(total_modes = n_distinct(Mode)) |>
  arrange(desc(total_modes)) # Massachusetts Bay Transportation Authority

# A tibble: 677 × 2
   Agency                                                   total_modes
   <chr>                                                          <int>
 1 Massachusetts Bay Transportation Authority                         7
 2 Central Oklahoma Transportation and Parking Authority              6
 3 City and County of San Francisco                                   6
 4 City of Charlotte North Carolina                                   6
 5 County of Miami-Dade                                               6
 6 Dallas Area Rapid Transit                                          6
 7 King County                                                        6
 8 Los Angeles County Metropolitan Transportation Authority           6
 9 Maryland Transit Administration                                    6
10 Metropolitan Transit Authority of Harris County, Texas             6
# ℹ 667 more rows
…
